9.022222222222222854e+01 1.313172522821153620e+01 9.777777777777778567e+00 8.686827477178846380e+01
8.703703703703703809e+01 1.314478463933575547e+01 1.296296296296296191e+01 8.685521536066424630e+01
8.854625550660793465e+01 1.306177586117316913e+01 1.145374449339207068e+01 8.693822413882682554e+01
8.755186721991701404e+01 1.330476430552054445e+01 1.244813278008298774e+01 8.669523569447945022e+01
8.828125000000000000e+01 1.312910284463894861e+01 1.171875000000000000e+01 8.687089715536104961e+01
8.561151079136691067e+01 1.322839570520170938e+01 1.438848920863309289e+01 8.677160429479829418e+01
8.785425101214573829e+01 1.299348015811900048e+01 1.214574898785425106e+01 8.700651984188100130e+01
9.055793991416308586e+01 1.297486248907623541e+01 9.442060085836910588e+00 8.702513751092376992e+01
8.861788617886179509e+01 1.266752246469832954e+01 1.138211382113821024e+01 8.733247753530166335e+01
9.160000000000000853e+01 1.366361628273903506e+01 8.400000000000000355e+00 8.633638371726097205e+01
8.933823529411765207e+01 1.295038089355569433e+01 1.066176470588235325e+01 8.704961910644431100e+01
8.883928571428570820e+01 1.317592112091333689e+01 1.116071428571428648e+01 8.682407887908667021e+01
9.069767441860464885e+01 1.307828730681530338e+01 9.302325581395349374e+00 8.692171269318468774e+01
9.365853658536586579e+01 1.313827614379085063e+01 6.341463414634146645e+00 8.686172385620915293e+01
8.836363636363635976e+01 1.311416555544158413e+01 1.163636363636363669e+01 8.688583444455841232e+01
9.069767441860464885e+01 1.301659280634855165e+01 9.302325581395349374e+00 8.698340719365145901e+01
8.966942148760330156e+01 1.323923346383680233e+01 1.033057851239669489e+01 8.676076653616320300e+01
8.765957446808511122e+01 1.382749049038758038e+01 1.234042553191489411e+01 8.617250950961241074e+01
9.066147859922179464e+01 1.257294706127553319e+01 9.338521400778210690e+00 8.742705293872447214e+01
9.371980676328503534e+01 1.302578018995929376e+01 6.280193236714976202e+00 8.697421981004070801e+01
9.075630252100840778e+01 1.330817866612278344e+01 9.243697478991597549e+00 8.669182133387721478e+01
9.032258064516128115e+01 1.343893714869698641e+01 9.677419354838709964e+00 8.656106285130302069e+01
8.562691131498471009e+01 1.355111609418000107e+01 1.437308868501528991e+01 8.644888390581999715e+01
8.931623931623931867e+01 1.313977389516957928e+01 1.068376068376068311e+01 8.686022610483041717e+01
8.849206349206349387e+01 1.337002932249601272e+01 1.150793650793650791e+01 8.662997067750399083e+01
8.850574712643678765e+01 1.337484561547962159e+01 1.149425287356321768e+01 8.662515438452037131e+01
9.253112033195020558e+01 1.353515524099809042e+01 7.468879668049792642e+00 8.646484475900192024e+01
8.755555555555555713e+01 1.350274298726839817e+01 1.244444444444444464e+01 8.649725701273159473e+01
9.036144578313253817e+01 1.348880213683994178e+01 9.638554216867470714e+00 8.651119786316006355e+01
8.897959183673469852e+01 1.281896421561226163e+01 1.102040816326530681e+01 8.718103578438774548e+01
9.038461538461538680e+01 1.307536671724835742e+01 9.615384615384616751e+00 8.692463328275164258e+01
9.087136929460581314e+01 1.329993285470791875e+01 9.128630705394190414e+00 8.670006714529208125e+01
8.760683760683760113e+01 1.298820646347066976e+01 1.239316239316239354e+01 8.701179353652933912e+01
8.945147679324894341e+01 1.308176744662331537e+01 1.054852320675105481e+01 8.691823255337668286e+01
8.909774436090225436e+01 1.332296526697770922e+01 1.090225563909774387e+01 8.667703473302229611e+01
9.262672811059907474e+01 1.333298841059602857e+01 7.373271889400921708e+00 8.666701158940396965e+01
9.301310043668121352e+01 1.335002299085474853e+01 6.986899563318776707e+00 8.664997700914524614e+01
9.030837004405286450e+01 1.343221871931365996e+01 9.691629955947137276e+00 8.656778128068634715e+01
8.884462151394421880e+01 1.327285627407257174e+01 1.115537848605577587e+01 8.672714372592741938e+01
8.787878787878787534e+01 1.325943741503712303e+01 1.212121212121212110e+01 8.674056258496287342e+01
9.136363636363637397e+01 1.279087529914965060e+01 8.636363636363636687e+00 8.720912470085035295e+01
8.638297872340426409e+01 1.297214413493483143e+01 1.361702127659574479e+01 8.702785586506516324e+01
8.800000000000000000e+01 1.344382109218179089e+01 1.200000000000000000e+01 8.655617890781822155e+01
8.866396761133603377e+01 1.274594981346143996e+01 1.133603238866396801e+01 8.725405018653856359e+01
8.970588235294117396e+01 1.327925721865115882e+01 1.029411764705882248e+01 8.672074278134884651e+01
8.534798534798534320e+01 1.293867422899680975e+01 1.465201465201465325e+01 8.706132577100319736e+01
9.134615384615383959e+01 1.345700522701650037e+01 8.653846153846153300e+00 8.654299477298349075e+01
8.561151079136691067e+01 1.347277760689018855e+01 1.438848920863309289e+01 8.652722239310980967e+01
9.248826291079812734e+01 1.357949032225116071e+01 7.511737089201877993e+00 8.642050967774883929e+01
8.909090909090909349e+01 1.291721955700724855e+01 1.090909090909090828e+01 8.708278044299275678e+01
9.292452830188679513e+01 1.334603894097043408e+01 7.075471698113207530e+00 8.665396105902956947e+01
9.247787610619468524e+01 1.313330564784053145e+01 7.522123893805310324e+00 8.686669435215947033e+01
9.082125603864734842e+01 1.326839271981543078e+01 9.178743961352656910e+00 8.673160728018456211e+01
8.862745098039215463e+01 1.293603172988914984e+01 1.137254901960784359e+01 8.706396827011084838e+01
9.039301310043667570e+01 1.301960381812583201e+01 9.606986899563318971e+00 8.698039618187416977e+01
8.608695652173913970e+01 1.341895710249165141e+01 1.391304347826086918e+01 8.658104289750835392e+01
8.745519713261649031e+01 1.278557317258497505e+01 1.254480286738351147e+01 8.721442682741502495e+01
9.105058365758755201e+01 1.323476930920214123e+01 8.949416342412451542e+00 8.676523069079784989e+01
9.078341013824883987e+01 1.325441983336720142e+01 9.216589861751153023e+00 8.674558016663279147e+01
9.147982062780269530e+01 1.313454395377630846e+01 8.520179372197308254e+00 8.686545604622368444e+01
9.060150375939849710e+01 1.365118807268209444e+01 9.398496240601502905e+00 8.634881192731789668e+01
9.130434782608695343e+01 1.305083876263274156e+01 8.695652173913043015e+00 8.694916123736724956e+01
8.628158844765343360e+01 1.301615332675427261e+01 1.371841155234657172e+01 8.698384667324572206e+01
8.588235294117646390e+01 1.303013250115107091e+01 1.411764705882352899e+01 8.696986749884892731e+01
8.876404494382022392e+01 1.305370843989769902e+01 1.123595505617977430e+01 8.694629156010230986e+01
8.955223880597014841e+01 1.302163436891212989e+01 1.044776119402984982e+01 8.697836563108786834e+01
8.870292887029287954e+01 1.315450754260412936e+01 1.129707112970711336e+01 8.684549245739586354e+01
8.620689655172412813e+01 1.361851622235999137e+01 1.379310344827586121e+01 8.638148377764001395e+01
8.790035587188611998e+01 1.344971850627550225e+01 1.209964412811387824e+01 8.655028149372449775e+01
8.560311284046692037e+01 1.315668789808917261e+01 1.439688715953307252e+01 8.684331210191082562e+01
8.471074380165288176e+01 1.341931521572240271e+01 1.528925619834710581e+01 8.658068478427759374e+01
8.978723404255319451e+01 1.351462499357425706e+01 1.021276595744680726e+01 8.648537500642574116e+01
8.758169934640523024e+01 1.297911174204015339e+01 1.241830065359477153e+01 8.702088825795985372e+01
9.227272727272726627e+01 1.341640706126687377e+01 7.727272727272726627e+00 8.658359293873311913e+01
8.669201520912547210e+01 1.348361294343738770e+01 1.330798479087452435e+01 8.651638705656262118e+01
8.803418803418803407e+01 1.324847250509164986e+01 1.196581196581196593e+01 8.675152749490835902e+01
9.212962962962963331e+01 1.367854396308638698e+01 7.870370370370370239e+00 8.632145603691361657e+01
9.481132075471697362e+01 1.318368797927987401e+01 5.188679245283019270e+00 8.681631202072011888e+01
9.013452914798206450e+01 1.331121708480199040e+01 9.865470852017937275e+00 8.668878291519801849e+01
8.941176470588236214e+01 1.316979023820407413e+01 1.058823529411764675e+01 8.683020976179592765e+01
8.969465648854961159e+01 1.275143861078576180e+01 1.030534351145038130e+01 8.724856138921424531e+01
9.132231404958676535e+01 1.320292149752285660e+01 8.677685950413223992e+00 8.679707850247714873e+01
9.154929577464788792e+01 1.360857041790893796e+01 8.450704225352112076e+00 8.639142958209106382e+01
8.844444444444444287e+01 1.309995826377295458e+01 1.155555555555555536e+01 8.690004173622703831e+01
8.834080717488788537e+01 1.365704063378482047e+01 1.165919282511210753e+01 8.634295936621518308e+01
8.969957081545064170e+01 1.338257768721344831e+01 1.030042918454935652e+01 8.661742231278654458e+01
8.779527559055118502e+01 1.298520542295994673e+01 1.220472440944881853e+01 8.701479457704004972e+01
8.983050847457627697e+01 1.327728507715178985e+01 1.016949152542373014e+01 8.672271492284821193e+01
9.018691588785047486e+01 1.339411646181744864e+01 9.813084112149532245e+00 8.660588353818255314e+01
8.955823293172690569e+01 1.280361036458597468e+01 1.044176706827309253e+01 8.719638963541402177e+01
9.178082191780822541e+01 1.288715393702809564e+01 8.219178082191779922e+00 8.711284606297191146e+01
8.781512605042016162e+01 1.309021705585844941e+01 1.218487394957983128e+01 8.690978294414153993e+01
8.798283261802575339e+01 1.334624796084828624e+01 1.201716738197424839e+01 8.665375203915171198e+01
8.918918918918919303e+01 1.348541278708876590e+01 1.081081081081081052e+01 8.651458721291123766e+01
8.944954128440366503e+01 1.375368540836911002e+01 1.055045871559633142e+01 8.624631459163089175e+01
9.000000000000000000e+01 1.320170141259255381e+01 1.000000000000000000e+01 8.679829858740744442e+01
9.040000000000000568e+01 1.335333057509309285e+01 9.599999999999999645e+00 8.664666942490690360e+01
8.995633187772925510e+01 1.291733113843304714e+01 1.004366812227074135e+01 8.708266886156694397e+01
9.260869565217390686e+01 1.325563325563325634e+01 7.391304347826086918e+00 8.674436674436674366e+01
8.695652173913043725e+01 1.301025641025641022e+01 1.304347826086956452e+01 8.698974358974358267e+01
9.047619047619048160e+01 1.323612465985521425e+01 9.523809523809523725e+00 8.676387534014479286e+01
8.755555555555555713e+01 1.323596997395700470e+01 1.244444444444444464e+01 8.676403002604298820e+01
8.700787401574802971e+01 1.359705897581939560e+01 1.299212598425196674e+01 8.640294102418060618e+01
8.888888888888888573e+01 1.332569285267764236e+01 1.111111111111111072e+01 8.667430714732236652e+01
9.070796460176990195e+01 1.305515389382359004e+01 9.292035398230089172e+00 8.694484610617641351e+01
9.354838709677419217e+01 1.301917350190690215e+01 6.451612903225806051e+00 8.698082649809309430e+01
8.904593639575971054e+01 1.319125012777266548e+01 1.095406360424028236e+01 8.680874987222733807e+01
8.808510638297872219e+01 1.293903916027452716e+01 1.191489361702127781e+01 8.706096083972548172e+01
8.821292775665399688e+01 1.300755309981244068e+01 1.178707224334600667e+01 8.699244690018755932e+01
9.139344262295081478e+01 1.312991924767453789e+01 8.606557377049179891e+00 8.687008075232546389e+01
8.925619834710744271e+01 1.323883117547720367e+01 1.074380165289256261e+01 8.676116882452279810e+01
9.166666666666665719e+01 1.327397608750954028e+01 8.333333333333332149e+00 8.672602391249046150e+01
8.791666666666667140e+01 1.295792015619380244e+01 1.208333333333333393e+01 8.704207984380619223e+01
9.301310043668121352e+01 1.303186022610482908e+01 6.986899563318776707e+00 8.696813977389517447e+01
8.927038626609441963e+01 1.299196582935014632e+01 1.072961373390558037e+01 8.700803417064985013e+01
8.807692307692308020e+01 1.334332059097014245e+01 1.192307692307692335e+01 8.665667940902986288e+01
9.099099099099099419e+01 1.276997702323206596e+01 9.009009009009009361e+00 8.723002297676792693e+01
9.357798165137614887e+01 1.300214658080343355e+01 6.422018348623853790e+00 8.699785341919657355e+01
8.561403508771930149e+01 1.308152924919392035e+01 1.438596491228070207e+01 8.691847075080607965e+01
9.111111111111111427e+01 1.296437465060730787e+01 8.888888888888889284e+00 8.703562534939268858e+01
9.207048458149780856e+01 1.299922898997686893e+01 7.929515418502202984e+00 8.700077101002312929e+01
9.144144144144144093e+01 1.344593560238812024e+01 8.558558558558559071e+00 8.655406439761186732e+01
8.760683760683760113e+01 1.264020486555697786e+01 1.239316239316239354e+01 8.735979513444301858e+01
9.198113207547169168e+01 1.302233703084637639e+01 8.018867924528301216e+00 8.697766296915362716e+01
9.043824701195218552e+01 1.321397244724214559e+01 9.561752988047809154e+00 8.678602755275785796e+01
9.368932038834951470e+01 1.306970509383378065e+01 6.310679611650485299e+00 8.693029490616621047e+01
8.875000000000000000e+01 1.298999591670069442e+01 1.125000000000000000e+01 8.701000408329930735e+01
8.712121212121212466e+01 1.321189172593767758e+01 1.287878787878787890e+01 8.678810827406232420e+01
9.036697247706422331e+01 1.275081900081899988e+01 9.633027522935780240e+00 8.724918099918099301e+01
9.067796610169492055e+01 1.303964300539643162e+01 9.322033898305084776e+00 8.696035699460357193e+01
9.075630252100840778e+01 1.328535701526055135e+01 9.243697478991597549e+00 8.671464298473944154e+01
9.273504273504273954e+01 1.348020335849637874e+01 7.264957264957265792e+00 8.651979664150361771e+01
8.847736625514403386e+01 1.282395456892101215e+01 1.152263374485596792e+01 8.717604543107898962e+01
9.369369369369368883e+01 1.313830617875175832e+01 6.306306306306305842e+00 8.686169382124823812e+01
9.414414414414414978e+01 1.342340491112709344e+01 5.855855855855855552e+00 8.657659508887290656e+01
8.811475409836066319e+01 1.337981237504485499e+01 1.188524590163934391e+01 8.662018762495515034e+01
8.769841269841269593e+01 1.296370765054790297e+01 1.230158730158730052e+01 8.703629234945209703e+01
9.130434782608695343e+01 1.360079298831385586e+01 8.695652173913043015e+00 8.639920701168614414e+01
8.625954198473282020e+01 1.293644156387204802e+01 1.374045801526717625e+01 8.706355843612794843e+01
8.770491803278687826e+01 1.334117406422581453e+01 1.229508196721311464e+01 8.665882593577418902e+01
9.067796610169492055e+01 1.363164451827242551e+01 9.322033898305084776e+00 8.636835548172757626e+01
8.938775510204081343e+01 1.299133910726182606e+01 1.061224489795918302e+01 8.700866089273817749e+01
8.979591836734694255e+01 1.345814749507312413e+01 1.020408163265306101e+01 8.654185250492687942e+01
8.963963963963963977e+01 1.364096336773932272e+01 1.036036036036036023e+01 8.635903663226068261e+01
8.959276018099548367e+01 1.333883530200649936e+01 1.040723981900452522e+01 8.666116469799349886e+01
8.910505836575876515e+01 1.310525235945834943e+01 1.089494163424124551e+01 8.689474764054165234e+01
9.086757990867579338e+01 1.323499491353000934e+01 9.132420091324199518e+00 8.676500508646999776e+01
8.550185873605947506e+01 1.284722222222222143e+01 1.449814126394051961e+01 8.715277777777778567e+01
9.144144144144144093e+01 1.293466673435199965e+01 8.558558558558559071e+00 8.706533326564800745e+01
9.257641921397380713e+01 1.311996717443709137e+01 7.423580786026201750e+00 8.688003282556290685e+01
8.803418803418803407e+01 1.322275374376039814e+01 1.196581196581196593e+01 8.677724625623960719e+01
9.388646288209606894e+01 1.300296918193918394e+01 6.113537117903930174e+00 8.699703081806082139e+01
9.016393442622950261e+01 1.327334083239594875e+01 9.836065573770492065e+00 8.672665916760405480e+01
8.942731277533039247e+01 1.301500541432475622e+01 1.057268722466960398e+01 8.698499458567525267e+01
8.724279835390946403e+01 1.265553712152633636e+01 1.275720164609053597e+01 8.734446287847366364e+01
8.927203065134099802e+01 1.300487111832758202e+01 1.072796934865900376e+01 8.699512888167241442e+01
9.244444444444444287e+01 1.289791720236564743e+01 7.555555555555555358e+00 8.710208279763435257e+01
8.987854251012146278e+01 1.295655712686946615e+01 1.012145748987854255e+01 8.704344287313053030e+01
8.862745098039215463e+01 1.295376580820234480e+01 1.137254901960784359e+01 8.704623419179765165e+01
9.147286821705425552e+01 1.269001297016861329e+01 8.527131782945735594e+00 8.730998702983139026e+01
8.777292576419213788e+01 1.330790640140191705e+01 1.222707423580786035e+01 8.669209359859809183e+01
9.049586776859503345e+01 1.278545826932923646e+01 9.504132231404959441e+00 8.721454173067075999e+01
8.949771689497715954e+01 1.302072538860103634e+01 1.050228310502282980e+01 8.697927461139896366e+01
9.082125603864734842e+01 1.312996667521148453e+01 9.178743961352656910e+00 8.687003332478852258e+01
9.078947368421053454e+01 1.335054207537429072e+01 9.210526315789472562e+00 8.664945792462570751e+01
9.146341463414634632e+01 1.316458269797702663e+01 8.536585365853659013e+00 8.683541730202297515e+01
9.158878504672897236e+01 1.310128238680973389e+01 8.411214953271027639e+00 8.689871761319027144e+01
8.429003021148035657e+01 1.302983539094650034e+01 1.570996978851963632e+01 8.697016460905349788e+01
9.086757990867579338e+01 1.310141389482249963e+01 9.132420091324199518e+00 8.689858610517750037e+01
8.750000000000000000e+01 1.339759781432032426e+01 1.250000000000000000e+01 8.660240218567966508e+01
8.995433789954337556e+01 1.303168347238572977e+01 1.004566210045662089e+01 8.696831652761427733e+01
9.033613445378151141e+01 1.328496244443309138e+01 9.663865546218488589e+00 8.671503755556690862e+01
9.015748031496062254e+01 1.326951474107642959e+01 9.842519685039370358e+00 8.673048525892357929e+01
9.107981220657276822e+01 1.306579082418146420e+01 8.920187793427230005e+00 8.693420917581853757e+01
8.818181818181818699e+01 1.325972551852233927e+01 1.181818181818181834e+01 8.674027448147766961e+01
9.458128078817733808e+01 1.358106052925073470e+01 5.418719211822660142e+00 8.641893947074926530e+01
9.143968871595330938e+01 1.318925052870480208e+01 8.560311284046692393e+00 8.681074947129519614e+01
8.719008264462809166e+01 1.341100390063641967e+01 1.280991735537189946e+01 8.658899609936358388e+01
9.107981220657276822e+01 1.296097934200459179e+01 8.920187793427230005e+00 8.703902065799540821e+01
8.859315589353612097e+01 1.310182339684490849e+01 1.140684410646387903e+01 8.689817660315509329e+01
9.107142857142856940e+01 1.310560278602888395e+01 8.928571428571428825e+00 8.689439721397111782e+01
9.067796610169492055e+01 1.320067695779270700e+01 9.322033898305084776e+00 8.679932304220729122e+01
8.722627737226277134e+01 1.297783651891012724e+01 1.277372262773722689e+01 8.702216348108987631e+01
8.961038961038960338e+01 1.339922559608722175e+01 1.038961038961038952e+01 8.660077440391276582e+01
8.828125000000000000e+01 1.314659578818237406e+01 1.171875000000000000e+01 8.685340421181761883e+01
9.255813953488372192e+01 1.355967291170686373e+01 7.441860465116278966e+00 8.644032708829313094e+01
8.943089430894308123e+01 1.272539395505037341e+01 1.056910569105691167e+01 8.727460604494962126e+01
8.914027149321267984e+01 1.360462692788662054e+01 1.085972850678733082e+01 8.639537307211338657e+01
9.230769230769230660e+01 1.366145121271962992e+01 7.692307692307692513e+00 8.633854878728037363e+01
9.205607476635513819e+01 1.298396158953927859e+01 7.943925233644859141e+00 8.701603841046072318e+01
8.851851851851851904e+01 1.350582147477360984e+01 1.148148148148148096e+01 8.649417852522638839e+01
9.014084507042254302e+01 1.286555750749199234e+01 9.859154929577464088e+00 8.713444249250801477e+01
9.460784313725490335e+01 1.295676004872107256e+01 5.392156862745098422e+00 8.704323995127893454e+01
9.090909090909090651e+01 1.299637169925418334e+01 9.090909090909091717e+00 8.700362830074581666e+01
9.159663865546218631e+01 1.350827036961405092e+01 8.403361344537815469e+00 8.649172963038594730e+01
9.252336448598130403e+01 1.315022249501304152e+01 7.476635514018690643e+00 8.684977750498696025e+01
8.776371308016878459e+01 1.315844372587879363e+01 1.223628691983122430e+01 8.684155627412120282e+01
9.205607476635513819e+01 1.370825122530443174e+01 7.943925233644859141e+00 8.629174877469556293e+01
8.917748917748917847e+01 1.311408016443987634e+01 1.082251082251082153e+01 8.688591983556011655e+01
8.816326530612245449e+01 1.351211964930376297e+01 1.183673469387755084e+01 8.648788035069622993e+01
8.933333333333332860e+01 1.286386877942591056e+01 1.066666666666666785e+01 8.713613122057408589e+01
8.921161825726142069e+01 1.362885746723088154e+01 1.078838174273858996e+01 8.637114253276911313e+01
8.932806324110671881e+01 1.353669182971293594e+01 1.067193675889327942e+01 8.646330817028706406e+01
9.203539823008848941e+01 1.321220855422306784e+01 7.964601769911504370e+00 8.678779144577693216e+01
8.936170212765956933e+01 1.299204568631450130e+01 1.063829787234042534e+01 8.700795431368550226e+01
8.733624454148471727e+01 1.303229788109442566e+01 1.266375545851528273e+01 8.696770211890557789e+01
8.709677419354838435e+01 1.335159539390250139e+01 1.290322580645161210e+01 8.664840460609750039e+01
8.803418803418803407e+01 1.308129124673862975e+01 1.196581196581196593e+01 8.691870875326137025e+01
9.137254901960784537e+01 1.316314523967872319e+01 8.627450980392156410e+00 8.683685476032127326e+01
8.932806324110671881e+01 1.296333908804712109e+01 1.067193675889327942e+01 8.703666091195287891e+01
8.884462151394421880e+01 1.307133052010778584e+01 1.115537848605577587e+01 8.692866947989222126e+01
8.780487804878049474e+01 1.316363267582779706e+01 1.219512195121951237e+01 8.683636732417220117e+01
9.301310043668121352e+01 1.331664708586606771e+01 6.986899563318776707e+00 8.668335291413393406e+01
9.194915254237288593e+01 1.306958128078817793e+01 8.050847457627117620e+00 8.693041871921181496e+01
9.256198347107438451e+01 1.293284768891397007e+01 7.438016528925619930e+00 8.706715231108603348e+01
8.771929824561402711e+01 1.352414471300657262e+01 1.228070175438596401e+01 8.647585528699343627e+01
9.221311475409835623e+01 1.295165394402035552e+01 7.786885245901639330e+00 8.704834605597963559e+01
8.772727272727273373e+01 1.312525625256252582e+01 1.227272727272727337e+01 8.687474374743747774e+01
8.831168831168831446e+01 1.289789169078131614e+01 1.168831168831168732e+01 8.710210830921867853e+01
9.336492890995261007e+01 1.299261724030362686e+01 6.635071090047393483e+00 8.700738275969636959e+01
8.794326241134751854e+01 1.312080364922351450e+01 1.205673758865248146e+01 8.687919635077648195e+01
8.656716417910446637e+01 1.304809588833257550e+01 1.343283582089552297e+01 8.695190411166741740e+01
9.149797570850202533e+01 1.323345817727840057e+01 8.502024291497974673e+00 8.676654182272159233e+01
9.008264462809917461e+01 1.298231306386666084e+01 9.917355371900827166e+00 8.701768693613334449e+01
9.009009009009008651e+01 1.323634873476078333e+01 9.909909909909909942e+00 8.676365126523921845e+01
8.838951310861423849e+01 1.350378105869643441e+01 1.161048689138576862e+01 8.649621894130355315e+01
8.761467889908256268e+01 1.342838025631787602e+01 1.238532110091743199e+01 8.657161974368212043e+01
8.814814814814815236e+01 1.334042660992045271e+01 1.185185185185185297e+01 8.665957339007954374e+01
8.496732026143790506e+01 1.339875927997559124e+01 1.503267973856209139e+01 8.660124072002440698e+01
8.683274021352312388e+01 1.306920504244918924e+01 1.316725978647686723e+01 8.693079495755080188e+01
9.120370370370370949e+01 1.313261059446128520e+01 8.796296296296295836e+00 8.686738940553871657e+01
8.817204301075268802e+01 1.333572049721213304e+01 1.182795698924731198e+01 8.666427950278786341e+01
9.220183486238532566e+01 1.299300415695021904e+01 7.798165137614679665e+00 8.700699584304977918e+01
8.953488372093023884e+01 1.284953395472702908e+01 1.046511627906976827e+01 8.715046604527296381e+01
9.106382978723404165e+01 1.330350714799958745e+01 8.936170212765958354e+00 8.669649285200040367e+01
8.991596638655462925e+01 1.305143321813376822e+01 1.008403361344537785e+01 8.694856678186623355e+01
9.130434782608695343e+01 1.354150643490744876e+01 8.695652173913043015e+00 8.645849356509255301e+01
8.759999999999999432e+01 1.343444176871445350e+01 1.240000000000000036e+01 8.656555823128555005e+01
9.067796610169492055e+01 1.310563526720731886e+01 9.322033898305084776e+00 8.689436473279268114e+01
8.487394957983192967e+01 1.328555678059536937e+01 1.512605042016806678e+01 8.671444321940462885e+01
8.940677966101694096e+01 1.312426818714045673e+01 1.059322033898305015e+01 8.687573181285954149e+01
9.037037037037036669e+01 1.330738906297382051e+01 9.629629629629629761e+00 8.669261093702618837e+01
9.224137931034482563e+01 1.291774443869632627e+01 7.758620689655172598e+00 8.708225556130366840e+01
8.988326848249027989e+01 1.358496411421490002e+01 1.011673151750972721e+01 8.641503588578510175e+01
9.137254901960784537e+01 1.266008605416350186e+01 8.627450980392156410e+00 8.733991394583649992e+01
8.538205980066445022e+01 1.334920060019661747e+01 1.461794019933554978e+01 8.665079939980337542e+01
9.074074074074074758e+01 1.325003856239395361e+01 9.259259259259259522e+00 8.674996143760604639e+01
9.555555555555555713e+01 1.285935884177869859e+01 4.444444444444444642e+00 8.714064115822129963e+01
9.411764705882352189e+01 1.293999497865930337e+01 5.882352941176470118e+00 8.706000502134070018e+01
9.090909090909090651e+01 1.349545294679194107e+01 9.090909090909091717e+00 8.650454705320805715e+01
9.004149377593361692e+01 1.318862198446582035e+01 9.958506224066390189e+00 8.681137801553417432e+01
9.059829059829060327e+01 1.335611119739089858e+01 9.401709401709402059e+00 8.664388880260909787e+01
9.170305676855895172e+01 1.303207896360271434e+01 8.296943231441048283e+00 8.696792103639728566e+01
8.833333333333332860e+01 1.318001340689939660e+01 1.166666666666666607e+01 8.681998659310060873e+01
9.070796460176990195e+01 1.309670781893004232e+01 9.292035398230089172e+00 8.690329218106995768e+01
8.840579710144928072e+01 1.406918595659122673e+01 1.159420289855072461e+01 8.593081404340877327e+01
8.427419354838710319e+01 1.311660342528971412e+01 1.572580645161290391e+01 8.688339657471027522e+01
9.275362318840579690e+01 1.296229057523730432e+01 7.246376811594203105e+00 8.703770942476269568e+01
9.257641921397380713e+01 1.329773579093289726e+01 7.423580786026201750e+00 8.670226420906710985e+01
9.103773584905660243e+01 1.313015938943980032e+01 8.962264150943395791e+00 8.686984061056020323e+01
8.963963963963963977e+01 1.363377363377363238e+01 1.036036036036036023e+01 8.636622636622635696e+01
8.875000000000000000e+01 1.316176098079943380e+01 1.125000000000000000e+01 8.683823901920057153e+01
9.201877934272300763e+01 1.293099057804939989e+01 7.981220657276995034e+00 8.706900942195059656e+01
9.497716894977168067e+01 1.364101514531314052e+01 5.022831050228310446e+00 8.635898485468686658e+01
9.433962264150943611e+01 1.268502225442500730e+01 5.660377358490566557e+00 8.731497774557499270e+01
9.181034482758620641e+01 1.294659014528721208e+01 8.189655172413793593e+00 8.705340985471278259e+01
9.090909090909090651e+01 1.283329940972929073e+01 9.090909090909091717e+00 8.716670059027070749e+01
8.901960784313725128e+01 1.364199442551873531e+01 1.098039215686274517e+01 8.635800557448126824e+01
8.793774319066147882e+01 1.320967411354785881e+01 1.206225680933852118e+01 8.679032588645215185e+01
8.857142857142856940e+01 1.302280396768585824e+01 1.142857142857142883e+01 8.697719603231413998e+01
9.142857142857143060e+01 1.359815479241414593e+01 8.571428571428571175e+00 8.640184520758586473e+01
9.078947368421053454e+01 1.321771255580070914e+01 9.210526315789472562e+00 8.678228744419928375e+01
9.260869565217390686e+01 1.332303732303732247e+01 7.391304347826086918e+00 8.667696267696267398e+01
8.855932203389829738e+01 1.299579788869529651e+01 1.144067796610169552e+01 8.700420211130470705e+01
9.162995594713656544e+01 1.308077197998570362e+01 8.370044052863436335e+00 8.691922802001428749e+01
8.661971830985915233e+01 1.343774069319640674e+01 1.338028169014084412e+01 8.656225930680359681e+01
9.083969465648854680e+01 1.301069791136016462e+01 9.160305343511449649e+00 8.698930208863984603e+01
8.639705882352942012e+01 1.279474880080787536e+01 1.360294117647058698e+01 8.720525119919211932e+01
9.400921658986175089e+01 1.348564496562879000e+01 5.990783410138248222e+00 8.651435503437120644e+01
8.709677419354838435e+01 1.304995888157894690e+01 1.290322580645161210e+01 8.695004111842105488e+01
9.234449760765551218e+01 1.350053091975527053e+01 7.655502392344497586e+00 8.649946908024472236e+01
8.618181818181818699e+01 1.315842993695342855e+01 1.381818181818181834e+01 8.684157006304657500e+01
8.897058823529411598e+01 1.323332302299206020e+01 1.102941176470588225e+01 8.676667697700793269e+01
8.774703557312253110e+01 1.342227200977646540e+01 1.225296442687747067e+01 8.657772799022353638e+01
9.004329004329004249e+01 1.298271042550988774e+01 9.956709956709957510e+00 8.701728957449010693e+01
8.966942148760330156e+01 1.336184947550666990e+01 1.033057851239669489e+01 8.663815052449332654e+01
8.814814814814815236e+01 1.311830173124484666e+01 1.185185185185185297e+01 8.688169826875514445e+01
9.145299145299145493e+01 1.373010593111918531e+01 8.547008547008546842e+00 8.626989406888081646e+01
9.107981220657276822e+01 1.342732285922380520e+01 8.920187793427230005e+00 8.657267714077619303e+01
9.090909090909090651e+01 1.298380878951426531e+01 9.090909090909091717e+00 8.701619121048574357e+01
9.022222222222222854e+01 1.362145274668055173e+01 9.777777777777778567e+00 8.637854725331945360e+01
8.875502008032128742e+01 1.327692307692307772e+01 1.124497991967871435e+01 8.672307692307693117e+01
8.315508021390374438e+01 1.329593693147362110e+01 1.684491978609625562e+01 8.670406306852638068e+01
8.728070175438597289e+01 1.284989858012170494e+01 1.271929824561403599e+01 8.715010141987829684e+01
9.200000000000000000e+01 1.286254084967320210e+01 8.000000000000000000e+00 8.713745915032680500e+01
8.800000000000000000e+01 1.304213135068153839e+01 1.200000000000000000e+01 8.695786864931845628e+01
8.897637795275589667e+01 1.302492932408121362e+01 1.102362204724409445e+01 8.697507067591878638e+01
9.224137931034482563e+01 1.298701298701298512e+01 7.758620689655172598e+00 8.701298701298701133e+01
8.634538152610441841e+01 1.333539285346514092e+01 1.365461847389558336e+01 8.666460714653484843e+01
8.782287822878228667e+01 1.320489455870866813e+01 1.217712177121771155e+01 8.679510544129132654e+01
8.794642857142856940e+01 1.311509162034177578e+01 1.205357142857142883e+01 8.688490837965822777e+01
9.003984063745019739e+01 1.322640155785589933e+01 9.960159362549800832e+00 8.677359844214410600e+01
8.411552346570397276e+01 1.330970360096573657e+01 1.588447653429602902e+01 8.669029639903426698e+01
8.655172413793103203e+01 1.322697385187828267e+01 1.344827586206896441e+01 8.677302614812172976e+01
8.650519031141868709e+01 1.299121590383726321e+01 1.349480968858131646e+01 8.700878409616274212e+01
9.354838709677419217e+01 1.329787234042553123e+01 6.451612903225806051e+00 8.670212765957447232e+01
9.008620689655172953e+01 1.284641284641284642e+01 9.913793103448275801e+00 8.715358715358715358e+01
9.177489177489177052e+01 1.303806012773248924e+01 8.225108225108225923e+00 8.696193987226750721e+01
8.947368421052631504e+01 1.260798025503907738e+01 1.052631578947368318e+01 8.739201974496091907e+01
8.150470219435736396e+01 1.330044197759276337e+01 1.849529780564263248e+01 8.669955802240724552e+01
8.711111111111110006e+01 1.322781232334652479e+01 1.288888888888888928e+01 8.677218767665347343e+01
8.925619834710744271e+01 1.239333604225924468e+01 1.074380165289256261e+01 8.760666395774076420e+01
8.877192982456139703e+01 1.327228766911878211e+01 1.122807017543859587e+01 8.672771233088121789e+01
8.928571428571429180e+01 1.312703414785348954e+01 1.071428571428571352e+01 8.687296585214650690e+01
8.796680497925311215e+01 1.338149994911977103e+01 1.203319502074688785e+01 8.661850005088022897e+01
9.162561576354679005e+01 1.267809209167871032e+01 8.374384236453201069e+00 8.732190790832127902e+01
9.173913043478260931e+01 1.317991631799163343e+01 8.260869565217390686e+00 8.682008368200835946e+01
8.921161825726142069e+01 1.314693325002603252e+01 1.078838174273858996e+01 8.685306674997396215e+01
8.816326530612245449e+01 1.319971293828172954e+01 1.183673469387755084e+01 8.680028706171827935e+01
8.925619834710744271e+01 1.362707012880801294e+01 1.074380165289256261e+01 8.637292987119198528e+01
8.964143426294820927e+01 1.311475409836065609e+01 1.035856573705179251e+01 8.688524590163933681e+01
8.451882845188283966e+01 1.363705855373796005e+01 1.548117154811715324e+01 8.636294144626204172e+01
9.203539823008848941e+01 1.345383588374242656e+01 7.964601769911504370e+00 8.654616411625757166e+01
8.497854077253218463e+01 1.270004103405826790e+01 1.502145922746781181e+01 8.729995896594172677e+01
9.151785714285713880e+01 1.313038600785273502e+01 8.482142857142857650e+00 8.686961399214726498e+01
9.074889867841409341e+01 1.319648093841642122e+01 9.251101321585903037e+00 8.680351906158357167e+01
9.375000000000000000e+01 1.310048194019795886e+01 6.250000000000000000e+00 8.689951805980203403e+01
8.940677966101694096e+01 1.312191611842105310e+01 1.059322033898305015e+01 8.687808388157894512e+01
9.227272727272726627e+01 1.311509268343057677e+01 7.727272727272726627e+00 8.688490731656942501e+01
9.134615384615383959e+01 1.357597353016034525e+01 8.653846153846153300e+00 8.642402646983966008e+01
9.004149377593361692e+01 1.321139246955724289e+01 9.958506224066390189e+00 8.678860753044276066e+01
8.953488372093023884e+01 1.247996691309517736e+01 1.046511627906976827e+01 8.752003308690483152e+01
8.775510204081632537e+01 1.304618578100674675e+01 1.224489795918367285e+01 8.695381421899325858e+01
8.654708520179372044e+01 1.293418647166361879e+01 1.345291479820627778e+01 8.706581352833637766e+01
8.888888888888888573e+01 1.317944518374449814e+01 1.111111111111111072e+01 8.682055481625550897e+01
8.624535315985130524e+01 1.328149139973220727e+01 1.375464684014869832e+01 8.671850860026779628e+01
9.078947368421053454e+01 1.315264638199948877e+01 9.210526315789472562e+00 8.684735361800051123e+01
8.962655601659751881e+01 1.296724767340223217e+01 1.037344398340249008e+01 8.703275232659777316e+01
9.441860465116278078e+01 1.292615847646723104e+01 5.581395348837209447e+00 8.707384152353276363e+01
9.059829059829060327e+01 1.338068329099486853e+01 9.401709401709402059e+00 8.661931670900513325e+01
9.194312796208529903e+01 1.322890818858560813e+01 8.056872037914692086e+00 8.677109181141439365e+01
8.935185185185184764e+01 1.272288166075741245e+01 1.064814814814814881e+01 8.727711833924259111e+01
9.146341463414634632e+01 1.296021301653950353e+01 8.536585365853659013e+00 8.703978698346050180e+01
9.130434782608695343e+01 1.264109505081975549e+01 8.695652173913043015e+00 8.735890494918024274e+01
9.336492890995261007e+01 1.350109744270328349e+01 6.635071090047393483e+00 8.649890255729671651e+01
8.888888888888888573e+01 1.325105388795774175e+01 1.111111111111111072e+01 8.674894611204226180e+01
8.862745098039215463e+01 1.279466422279924487e+01 1.137254901960784359e+01 8.720533577720075868e+01
9.036697247706422331e+01 1.329485673425609171e+01 9.633027522935780240e+00 8.670514326574391362e+01
9.253112033195020558e+01 1.296850800206504850e+01 7.468879668049792642e+00 8.703149199793494972e+01
9.033816425120772919e+01 1.323476564505364728e+01 9.661835748792270806e+00 8.676523435494635805e+01
8.796992481203007230e+01 1.360983420277878153e+01 1.203007518796992414e+01 8.639016579722121492e+01
8.902439024390244526e+01 1.318482530494107863e+01 1.097560975609756184e+01 8.681517469505891427e+01
8.925619834710744271e+01 1.331309180732811726e+01 1.074380165289256261e+01 8.668690819267187919e+01
8.975409836065574609e+01 1.292544777261825928e+01 1.024590163934426279e+01 8.707455222738174427e+01
8.744588744588745044e+01 1.239290085679314579e+01 1.255411255411255311e+01 8.760709914320685243e+01
8.968253968253968367e+01 1.353623335190155608e+01 1.031746031746031633e+01 8.646376664809845636e+01
8.576642335766423741e+01 1.319023176232695604e+01 1.423357664233576614e+01 8.680976823767304040e+01
9.262672811059907474e+01 1.317949512157348657e+01 7.373271889400921708e+00 8.682050487842651876e+01
8.765432098765431590e+01 1.294964028776978360e+01 1.234567901234567877e+01 8.705035971223021818e+01
8.429487179487179560e+01 1.322540602048205294e+01 1.570512820512820440e+01 8.677459397951794529e+01
9.137931034482758719e+01 1.288241520084673120e+01 8.620689655172414589e+00 8.711758479915326348e+01
9.238095238095237960e+01 1.323377428689541091e+01 7.619047619047619513e+00 8.676622571310458909e+01
8.942731277533039247e+01 1.256927848680530779e+01 1.057268722466960398e+01 8.743072151319468333e+01
8.922413793103449109e+01 1.321932406373693425e+01 1.077586206896551602e+01 8.678067593626306575e+01
9.162790697674418539e+01 1.295238095238095077e+01 8.372093023255814614e+00 8.704761904761905100e+01
9.297520661157024335e+01 1.311213168894163950e+01 7.024793388429752206e+00 8.688786831105835518e+01
9.030837004405286450e+01 1.296553855663730381e+01 9.691629955947137276e+00 8.703446144336270152e+01
9.276595744680851396e+01 1.303945270305025517e+01 7.234042553191488700e+00 8.696054729694974128e+01
8.961038961038960338e+01 1.363801988444120461e+01 1.038961038961038952e+01 8.636198011555879361e+01
8.949579831932773288e+01 1.335646140503035717e+01 1.050420168067226889e+01 8.664353859496965526e+01
9.241071428571429180e+01 1.278397356464270906e+01 7.589285714285713524e+00 8.721602643535729271e+01
8.920000000000000284e+01 1.313063643390878710e+01 1.080000000000000071e+01 8.686936356609122356e+01
8.992248062015504217e+01 1.333920887552491052e+01 1.007751937984496138e+01 8.666079112447508237e+01
8.618181818181818699e+01 1.337527492199887469e+01 1.381818181818181834e+01 8.662472507800113419e+01
9.241071428571429180e+01 1.343556413120747450e+01 7.589285714285713524e+00 8.656443586879251484e+01
8.975409836065574609e+01 1.304609218436873697e+01 1.024590163934426279e+01 8.695390781563125415e+01
9.111111111111111427e+01 1.317331414473684248e+01 8.888888888888889284e+00 8.682668585526315042e+01
8.821292775665399688e+01 1.291037468432716651e+01 1.178707224334600667e+01 8.708962531567283349e+01
9.065420560747664069e+01 1.329001472155947106e+01 9.345794392523364635e+00 8.670998527844052717e+01
8.576271186440678207e+01 1.333164042661249304e+01 1.423728813559322148e+01 8.666835957338750518e+01
9.230769230769230660e+01 1.285943733485311569e+01 7.692307692307692513e+00 8.714056266514688787e+01
9.429824561403509620e+01 1.318098347276066029e+01 5.701754385964911798e+00 8.681901652723934149e+01
8.436482084690554473e+01 1.327711215097444253e+01 1.563517915309446060e+01 8.672288784902555392e+01
8.978723404255319451e+01 1.305309734513274478e+01 1.021276595744680726e+01 8.694690265486725878e+01
9.327731092436974336e+01 1.295794798426243055e+01 6.722689075630252198e+00 8.704205201573756767e+01
9.198113207547169168e+01 1.303002637451815815e+01 8.018867924528301216e+00 8.696997362548184185e+01
8.847736625514403386e+01 1.310967872912754473e+01 1.152263374485596792e+01 8.689032127087246238e+01
8.991935483870967971e+01 1.313615502294747728e+01 1.008064516129032206e+01 8.686384497705252272e+01
8.976377952755905199e+01 1.338110484321796889e+01 1.023622047244094446e+01 8.661889515678203111e+01
8.986784140969163559e+01 1.306501547987616085e+01 1.013215859030836974e+01 8.693498452012383382e+01
9.299065420560748407e+01 1.303614334645467920e+01 7.009345794392523032e+00 8.696385665354532080e+01
8.861788617886179509e+01 1.359138682389131070e+01 1.138211382113821024e+01 8.640861317610870174e+01
9.110169491525424235e+01 1.292845173411872395e+01 8.898305084745762983e+00 8.707154826588127605e+01
9.565217391304348382e+01 1.310808697012357271e+01 4.347826086956521507e+00 8.689191302987642018e+01
9.497716894977168067e+01 1.320639134207973697e+01 5.022831050228310446e+00 8.679360865792025947e+01
8.939393939393939092e+01 1.325540025412960610e+01 1.060606060606060552e+01 8.674459974587040278e+01
8.938053097345132869e+01 1.328455116974131833e+01 1.061946902654867309e+01 8.671544883025867989e+01
9.105691056910568193e+01 1.307179407660102299e+01 8.943089430894309189e+00 8.692820592339897701e+01
8.977777777777777146e+01 1.287807920174618204e+01 1.022222222222222321e+01 8.712192079825381086e+01
9.227467811158798838e+01 1.296305784700517449e+01 7.725321888412017834e+00 8.703694215299482551e+01
8.720000000000000284e+01 1.345937083717594085e+01 1.280000000000000071e+01 8.654062916282406093e+01
8.811475409836066319e+01 1.287937143737482515e+01 1.188524590163934391e+01 8.712062856262517130e+01
8.501742160278745075e+01 1.310523904078203827e+01 1.498257839721254214e+01 8.689476095921796173e+01
9.023437500000000000e+01 1.313797688452490497e+01 9.765625000000000000e+00 8.686202311547509680e+01
8.727915194346289240e+01 1.309787365494516820e+01 1.272084805653710049e+01 8.690212634505482470e+01
9.000000000000000000e+01 1.302475780409042017e+01 1.000000000000000000e+01 8.697524219590958694e+01
9.241071428571429180e+01 1.295745771399282376e+01 7.589285714285713524e+00 8.704254228600717624e+01
9.223744292237442721e+01 1.333127444924850558e+01 7.762557077625570123e+00 8.666872555075148910e+01
9.147286821705425552e+01 1.291979048988394752e+01 8.527131782945735594e+00 8.708020951011604893e+01
8.925619834710744271e+01 1.294838145231846127e+01 1.074380165289256261e+01 8.705161854768154228e+01
8.600823045267489420e+01 1.286519733470015403e+01 1.399176954732510225e+01 8.713480266529984419e+01
8.419354838709676869e+01 1.314390842191332709e+01 1.580645161290322420e+01 8.685609157808667646e+01
9.364406779661015889e+01 1.258138938733658030e+01 6.355932203389830448e+00 8.741861061266341437e+01
9.327731092436974336e+01 1.323848939472322606e+01 6.722689075630252198e+00 8.676151060527676862e+01
8.931623931623931867e+01 1.297466728328451957e+01 1.068376068376068311e+01 8.702533271671548221e+01
9.043478260869565588e+01 1.327162072316268571e+01 9.565217391304347672e+00 8.672837927683730186e+01
9.007936507936507553e+01 1.349150497637478452e+01 9.920634920634920917e+00 8.650849502362521548e+01
9.200000000000000000e+01 1.370368445668554713e+01 8.000000000000000000e+00 8.629631554331444931e+01
9.030837004405286450e+01 1.360324729392173282e+01 9.691629955947137276e+00 8.639675270607827429e+01
8.630136986301370428e+01 1.337714758849099539e+01 1.369863013698630105e+01 8.662285241150900106e+01
9.452054794520547887e+01 1.346134360117539863e+01 5.479452054794520244e+00 8.653865639882459959e+01
9.155555555555555713e+01 1.339497882012604713e+01 8.444444444444444642e+00 8.660502117987395820e+01
9.478260869565217206e+01 1.322254335260115710e+01 5.217391304347826164e+00 8.677745664739885001e+01
9.380530973451327270e+01 1.311416921508664579e+01 6.194690265486725522e+00 8.688583078491335243e+01
9.012345679012345556e+01 1.355670103092783485e+01 9.876543209876542662e+00 8.644329896907217403e+01
8.884758364312267531e+01 1.323752656613703138e+01 1.115241635687732291e+01 8.676247343386297928e+01
9.209486166007904728e+01 1.326138839887932086e+01 7.905138339920949164e+00 8.673861160112068092e+01
9.066666666666665719e+01 1.332685322555891005e+01 9.333333333333333925e+00 8.667314677444109350e+01
8.624535315985130524e+01 1.342974135696884908e+01 1.375464684014869832e+01 8.657025864303115270e+01
9.227272727272726627e+01 1.305630304284827226e+01 7.727272727272726627e+00 8.694369695715172952e+01
8.755555555555555713e+01 1.331626120358514775e+01 1.244444444444444464e+01 8.668373879641485757e+01
9.116279069767442422e+01 1.354257782351427863e+01 8.837209302325581106e+00 8.645742217648572137e+01
8.983050847457627697e+01 1.320463320463320400e+01 1.016949152542373014e+01 8.679536679536678889e+01
8.792452830188679513e+01 1.311567259206438152e+01 1.207547169811320842e+01 8.688432740793561493e+01
8.981132075471698784e+01 1.272736562436133312e+01 1.018867924528301927e+01 8.727263437563867399e+01
8.846153846153845279e+01 1.304900366002440038e+01 1.153846153846153832e+01 8.695099633997558897e+01
8.901515151515151558e+01 1.291488153615857115e+01 1.098484848484848442e+01 8.708511846384142530e+01
8.823529411764705799e+01 1.338751725195522191e+01 1.176470588235294024e+01 8.661248274804478342e+01
8.726591760299625378e+01 1.349699553181654643e+01 1.273408239700374622e+01 8.650300446818344824e+01
9.068100358422938712e+01 1.303659843805829155e+01 9.318996415770609332e+00 8.696340156194170845e+01
8.987341772151899022e+01 1.302804031121090311e+01 1.012658227848101333e+01 8.697195968878909866e+01
9.174757281553398514e+01 1.345888837850252528e+01 8.252427184466020194e+00 8.654111162149746406e+01
8.783269961977185858e+01 1.321863197650020894e+01 1.216730038022813609e+01 8.678136802349979462e+01
8.821138211382113070e+01 1.314481044126786813e+01 1.178861788617886219e+01 8.685518955873212121e+01
9.070796460176990195e+01 1.299316953817922204e+01 9.292035398230089172e+00 8.700683046182076907e+01
9.466019417475727948e+01 1.351783137497423226e+01 5.339805825242717852e+00 8.648216862502576419e+01
9.162790697674418539e+01 1.366485153601150770e+01 8.372093023255814614e+00 8.633514846398850295e+01
9.063829787234041646e+01 1.320137157107231829e+01 9.361702127659574657e+00 8.679862842892768526e+01
8.995815899581589292e+01 1.342805476621028227e+01 1.004184100418409997e+01 8.657194523378971951e+01
8.690476190476191221e+01 1.315897225918722313e+01 1.309523809523809668e+01 8.684102774081277687e+01
8.820754716981132049e+01 1.348825200103279087e+01 1.179245283018867951e+01 8.651174799896720913e+01
8.786885245901639507e+01 1.297111839410077749e+01 1.213114754098360670e+01 8.702888160589921540e+01
9.224489795918367463e+01 1.293020426782908494e+01 7.755102040816326259e+00 8.706979573217091684e+01
9.147286821705425552e+01 1.321708625670656190e+01 8.527131782945735594e+00 8.678291374329343455e+01
8.744588744588745044e+01 1.318857024963894986e+01 1.255411255411255311e+01 8.681142975036104303e+01
8.376383763837638696e+01 1.326992523269416502e+01 1.623616236162361659e+01 8.673007476730583676e+01
9.128630705394191125e+01 1.289528983650248506e+01 8.713692946058090527e+00 8.710471016349751494e+01
9.020408163265307167e+01 1.336289116873743410e+01 9.795918367346938993e+00 8.663710883126256590e+01
9.017094017094017033e+01 1.344704684317719057e+01 9.829059829059829667e+00 8.655295315682280943e+01
9.203539823008848941e+01 1.318429495340428836e+01 7.964601769911504370e+00 8.681570504659570986e+01
9.214876033057851146e+01 1.322356050210906098e+01 7.851239669421487655e+00 8.677643949789093369e+01
9.431279620853079848e+01 1.341147183902084983e+01 5.687203791469194414e+00 8.658852816097915195e+01
8.893280632411067188e+01 1.363589479112944858e+01 1.106719367588932812e+01 8.636410520887055497e+01
9.423076923076922640e+01 1.259132597543914045e+01 5.769230769230769162e+00 8.740867402456086666e+01
9.191489361702127781e+01 1.367617107942973576e+01 8.085106382978723971e+00 8.632382892057026424e+01
8.551236749116607427e+01 1.355739400206825174e+01 1.448763250883392217e+01 8.644260599793173583e+01
8.913043478260868824e+01 1.324723058859563984e+01 1.086956521739130466e+01 8.675276941140435838e+01
8.927203065134099802e+01 1.281761716544325225e+01 1.072796934865900376e+01 8.718238283455674775e+01
9.383886255924170428e+01 1.304302585713542406e+01 6.161137440758293948e+00 8.695697414286456706e+01
9.389671361502347224e+01 1.339965801336856721e+01 6.103286384976525980e+00 8.660034198663143457e+01
8.945312500000000000e+01 1.303649181007671665e+01 1.054687500000000000e+01 8.696350818992328868e+01
9.103139013452914696e+01 1.301124876885594261e+01 8.968609865470851261e+00 8.698875123114405028e+01
8.986784140969163559e+01 1.315326190835471110e+01 1.013215859030836974e+01 8.684673809164529246e+01
8.555956678700360385e+01 1.289557777548706241e+01 1.444043321299638905e+01 8.710442222451293048e+01
9.383259911894272420e+01 1.295435770342833415e+01 6.167400881057268691e+00 8.704564229657167118e+01
9.271255060728745434e+01 1.315748960845692039e+01 7.287449392712550100e+00 8.684251039154308671e+01
8.647686832740212992e+01 1.298801106670765471e+01 1.352313167259786653e+01 8.701198893329234352e+01
8.875000000000000000e+01 1.329716449994881877e+01 1.125000000000000000e+01 8.670283550005117945e+01
9.082969432314411051e+01 1.297836079119971053e+01 9.170305676855896593e+00 8.702163920880029480e+01
9.238095238095237960e+01 1.325755618703177419e+01 7.619047619047619513e+00 8.674244381296823292e+01
8.902439024390244526e+01 1.302652895909275088e+01 1.097560975609756184e+01 8.697347104090724201e+01
8.593750000000000000e+01 1.367784271506203275e+01 1.406250000000000000e+01 8.632215728493797258e+01
9.063829787234041646e+01 1.240418479386782735e+01 9.361702127659574657e+00 8.759581520613217265e+01
9.045643153526971503e+01 1.263300646776549208e+01 9.543568464730290302e+00 8.736699353223450260e+01
9.211618257261410747e+01 1.330618136825282249e+01 7.883817427385891641e+00 8.669381863174717751e+01
9.058295964125559863e+01 1.316842861541619669e+01 9.417040358744394268e+00 8.683157138458381041e+01
8.928571428571429180e+01 1.308606703739605059e+01 1.071428571428571352e+01 8.691393296260395118e+01
9.189189189189190188e+01 1.298393739703459460e+01 8.108108108108108780e+00 8.701606260296540540e+01
8.396946564885496400e+01 1.323590597045974704e+01 1.603053435114503600e+01 8.676409402954024586e+01
9.156118143459916325e+01 1.346928239545689188e+01 8.438818565400843852e+00 8.653071760454309924e+01
9.158878504672897236e+01 1.317665289256198236e+01 8.411214953271027639e+00 8.682334710743802475e+01
9.170124481327800936e+01 1.298285478206981836e+01 8.298755186721990640e+00 8.701714521793017809e+01
9.220779220779220964e+01 1.317642222108021954e+01 7.792207792207792139e+00 8.682357777891978401e+01
8.597122302158273044e+01 1.296980899568699819e+01 1.402877697841726423e+01 8.703019100431299648e+01
8.905109489051095295e+01 1.325441983336720142e+01 1.094890510948905238e+01 8.674558016663279147e+01
9.207048458149780856e+01 1.308411214953270907e+01 7.929515418502202984e+00 8.691588785046728560e+01
8.520000000000000284e+01 1.298806392878818450e+01 1.479999999999999893e+01 8.701193607121182083e+01
9.158415841584158557e+01 1.346999284326755841e+01 8.415841584158416211e+00 8.653000715673243803e+01
8.913043478260868824e+01 1.335096178773267006e+01 1.086956521739130466e+01 8.664903821226732816e+01
8.811475409836066319e+01 1.327287716405606055e+01 1.188524590163934391e+01 8.672712283594393057e+01
